[
  {
    "id": "1eoi6mi9dyu",
    "name": "blala",
    "isComleted": false
  },
  {
    "id": "ititgnjdp0c",
    "name": "go to mall",
    "isComleted": false
  },
  {
    "id": "am8gekrnl8",
    "name": "swim",
    "isComleted": false
  },
  {
    "id": "kjaxsvlv6zo",
    "name": "one",
    "isComleted": false
  },
  {
    "id": "3lzwgju1p5t",
    "name": "two",
    "isComleted": false
  },
  {
    "id": "1f7pm9cxhjz",
    "name": "omri",
    "isComleted": false
  },
  {
    "id": "ooxgt4r9ivb",
    "name": "omri",
    "isComleted": false
  },
  {
    "id": "xbdslns0ukk",
    "name": "omri",
    "isComleted": false
  },
  {
    "id": "cszzx7wcj0q",
    "name": "ella",
    "isComleted": false
  },
  {
    "id": "bfju1lwtje",
    "name": "ella_fgff",
    "isComleted": false
  }
]